<svg width="74" height="74" viewBox="0 0 74 74" fill="none" xmlns="http://www.w3.org/2000/svg">
<path d="M9.25 12.728L37.0139 4.625L64.75 12.728V29.3441C64.7498 37.8598 62.0701 46.1595 57.0904 53.0675C52.1107 59.9755 45.0836 65.1414 37.0046 67.8333C28.9231 65.1417 21.8937 59.9751 16.9122 53.0657C11.9308 46.1562 9.25012 37.8543 9.25 29.3364V12.728Z" stroke="black" stroke-width="4" stroke-linejoin="round"/>
<path d="M26.2085 29.2916H47.7918M26.2085 38.5416H47.7918M47.7918 29.2916L40.0835 21.5833M33.9168 46.25L26.2085 38.5416" stroke="black" stroke-width="4" stroke-linecap="round" stroke-linejoin="round"/>
</svg>
