<svg width="75" height="75" viewBox="0 0 75 75" fill="none" xmlns="http://www.w3.org/2000/svg">
<path d="M34.375 12.5V31.25C34.375 34.7031 28.0781 37.5 20.3125 37.5C12.5469 37.5 6.25 34.7031 6.25 31.25V12.5" stroke="black" stroke-width="4" stroke-linecap="round" stroke-linejoin="round"/>
<path d="M34.375 21.875C34.375 25.3281 28.0781 28.125 20.3125 28.125C12.5469 28.125 6.25 25.3281 6.25 21.875M50 9.375H59.375C61.0326 9.375 62.6223 10.0335 63.7944 11.2056C64.9665 12.3777 65.625 13.9674 65.625 15.625V25M25 65.625H15.625C13.9674 65.625 12.3777 64.9665 11.2056 63.7944C10.0335 62.6223 9.375 61.0326 9.375 59.375V50M34.375 12.5C34.375 15.9531 28.0781 18.75 20.3125 18.75C12.5469 18.75 6.25 15.9531 6.25 12.5C6.25 9.04687 12.5469 6.25 20.3125 6.25C28.0781 6.25 34.375 9.04687 34.375 12.5Z" stroke="black" stroke-width="4" stroke-linecap="round" stroke-linejoin="round"/>
<path d="M54.6875 53.125C59.0022 53.125 62.5 49.6272 62.5 45.3125C62.5 40.9978 59.0022 37.5 54.6875 37.5C50.3728 37.5 46.875 40.9978 46.875 45.3125C46.875 49.6272 50.3728 53.125 54.6875 53.125Z" stroke="black" stroke-width="4" stroke-linecap="round" stroke-linejoin="round"/>
<path d="M68.75 68.75H40.625C40.625 66.9033 40.9887 65.0747 41.6954 63.3685C42.4021 61.6624 43.438 60.1121 44.7438 58.8063C46.0496 57.5005 47.5999 56.4647 49.306 55.7579C51.0122 55.0512 52.8408 54.6875 54.6875 54.6875C56.5342 54.6875 58.3628 55.0512 60.069 55.7579C61.7751 56.4647 63.3254 57.5005 64.6312 58.8063C65.937 60.1121 66.9728 61.6624 67.6796 63.3685C68.3863 65.0747 68.75 66.9033 68.75 68.75V68.75Z" stroke="black" stroke-width="4" stroke-linecap="round" stroke-linejoin="round"/>
</svg>
